%YAML 1.1
%TAG !u! tag:unity3d.com,2011:
--- !u!29 &1
OcclusionCullingSettings:
  m_ObjectHideFlags: 0
  serializedVersion: 2
  m_OcclusionBakeSettings:
    smallestOccluder: 5
    smallestHole: 0.25
    backfaceThreshold: 100
  m_SceneGUID: 00000000000000000000000000000000
  m_OcclusionCullingData: {fileID: 0}
--- !u!104 &2
RenderSettings:
  m_ObjectHideFlags: 0
  serializedVersion: 9
  m_Fog: 0
  m_FogColor: {r: 0.5, g: 0.5, b: 0.5, a: 1}
  m_FogMode: 3
  m_FogDensity: 0.01
  m_LinearFogStart: 0
  m_LinearFogEnd: 300
  m_AmbientSkyColor: {r: 0.212, g: 0.227, b: 0.259, a: 1}
  m_AmbientEquatorColor: {r: 0.114, g: 0.125, b: 0.133, a: 1}
  m_AmbientGroundColor: {r: 0.047, g: 0.043, b: 0.035, a: 1}
  m_AmbientIntensity: 1
  m_AmbientMode: 0
  m_SubtractiveShadowColor: {r: 0.42, g: 0.478, b: 0.627, a: 1}
  m_SkyboxMaterial: {fileID: 2100000, guid: 97f1fc767078c904184a5800339690a2, type: 2}
  m_HaloStrength: 0.5
  m_FlareStrength: 1
  m_FlareFadeSpeed: 3
  m_HaloTexture: {fileID: 0}
  m_SpotCookie: {fileID: 10001, guid: 0000000000000000e000000000000000, type: 0}
  m_DefaultReflectionMode: 0
  m_DefaultReflectionResolution: 128
  m_ReflectionBounces: 1
  m_ReflectionIntensity: 1
  m_CustomReflection: {fileID: 0}
  m_Sun: {fileID: 0}
  m_IndirectSpecularColor: {r: 0.28462213, g: 0.37121117, b: 0.49880707, a: 1}
  m_UseRadianceAmbientProbe: 0
--- !u!157 &3
LightmapSettings:
  m_ObjectHideFlags: 0
  serializedVersion: 11
  m_GIWorkflowMode: 0
  m_GISettings:
    serializedVersion: 2
    m_BounceScale: 1
    m_IndirectOutputScale: 1
    m_AlbedoBoost: 1
    m_EnvironmentLightingMode: 0
    m_EnableBakedLightmaps: 1
    m_EnableRealtimeLightmaps: 1
  m_LightmapEditorSettings:
    serializedVersion: 10
    m_Resolution: 2
    m_BakeResolution: 40
    m_AtlasSize: 1024
    m_AO: 0
    m_AOMaxDistance: 1
    m_CompAOExponent: 1
    m_CompAOExponentDirect: 0
    m_Padding: 2
    m_LightmapParameters: {fileID: 0}
    m_LightmapsBakeMode: 1
    m_TextureCompression: 1
    m_FinalGather: 0
    m_FinalGatherFiltering: 1
    m_FinalGatherRayCount: 256
    m_ReflectionCompression: 2
    m_MixedBakeMode: 2
    m_BakeBackend: 0
    m_PVRSampling: 1
    m_PVRDirectSampleCount: 32
    m_PVRSampleCount: 500
    m_PVRBounces: 2
    m_PVRFilterTypeDirect: 0
    m_PVRFilterTypeIndirect: 0
    m_PVRFilterTypeAO: 0
    m_PVRFilteringMode: 1
    m_PVRCulling: 1
    m_PVRFilteringGaussRadiusDirect: 1
    m_PVRFilteringGaussRadiusIndirect: 5
    m_PVRFilteringGaussRadiusAO: 2
    m_PVRFilteringAtrousPositionSigmaDirect: 0.5
    m_PVRFilteringAtrousPositionSigmaIndirect: 2
    m_PVRFilteringAtrousPositionSigmaAO: 1
    m_ShowResolutionOverlay: 1
  m_LightingDataAsset: {fileID: 0}
  m_UseShadowmask: 1
--- !u!196 &4
NavMeshSettings:
  serializedVersion: 2
  m_ObjectHideFlags: 0
  m_BuildSettings:
    serializedVersion: 2
    agentTypeID: 0
    agentRadius: 0.5
    agentHeight: 2
    agentSlope: 45
    agentClimb: 0.4
    ledgeDropHeight: 0
    maxJumpAcrossDistance: 0
    minRegionArea: 2
    manualCellSize: 0
    cellSize: 0.16666667
    manualTileSize: 0
    tileSize: 256
    accuratePlacement: 0
    debug:
      m_Flags: 0
  m_NavMeshData: {fileID: 0}
--- !u!1001 &52184982
PrefabInstance:
  m_ObjectHideFlags: 0
  serializedVersion: 2
  m_Modification:
    m_TransformParent: {fileID: 0}
    m_Modifications:
    - target: {fileID: 4023215848608658, guid: 55776efecb0cd134ea5f418c2f97a705, type: 3}
      propertyPath: m_LocalPosition.x
      value: 1.66
      objectReference: {fileID: 0}
    - target: {fileID: 4023215848608658, guid: 55776efecb0cd134ea5f418c2f97a705, type: 3}
      propertyPath: m_LocalPosition.y
      value: 0
      objectReference: {fileID: 0}
    - target: {fileID: 4023215848608658, guid: 55776efecb0cd134ea5f418c2f97a705, type: 3}
      propertyPath: m_LocalPosition.z
      value: -0.83
      objectReference: {fileID: 0}
    - target: {fileID: 4023215848608658, guid: 55776efecb0cd134ea5f418c2f97a705, type: 3}
      propertyPath: m_LocalRotation.x
      value: -0
      objectReference: {fileID: 0}
    - target: {fileID: 4023215848608658, guid: 55776efecb0cd134ea5f418c2f97a705, type: 3}
      propertyPath: m_LocalRotation.y
      value: -0.22403187
      objectReference: {fileID: 0}
    - target: {fileID: 4023215848608658, guid: 55776efecb0cd134ea5f418c2f97a705, type: 3}
      propertyPath: m_LocalRotation.z
      value: -0
      objectReference: {fileID: 0}
    - target: {fileID: 4023215848608658, guid: 55776efecb0cd134ea5f418c2f97a705, type: 3}
      propertyPath: m_LocalRotation.w
      value: 0.97458184
      objectReference: {fileID: 0}
    - target: {fileID: 4023215848608658, guid: 55776efecb0cd134ea5f418c2f97a705, type: 3}
      propertyPath: m_RootOrder
      value: 5
      objectReference: {fileID: 0}
    - target: {fileID: 4023215848608658, guid: 55776efecb0cd134ea5f418c2f97a705, type: 3}
      propertyPath: m_LocalEulerAnglesHint.y
      value: -25.892002
      objectReference: {fileID: 0}
    m_RemovedComponents: []
  m_SourcePrefab: {fileID: 100100000, guid: 55776efecb0cd134ea5f418c2f97a705, type: 3}
--- !u!1001 &142120165
PrefabInstance:
  m_ObjectHideFlags: 0
  serializedVersion: 2
  m_Modification:
    m_TransformParent: {fileID: 0}
    m_Modifications:
    - target: {fileID: 400000, guid: 550cdd9b4c76ad645b99cd9eea1bb745, type: 3}
      propertyPath: m_LocalPosition.x
      value: -0
      objectReference: {fileID: 0}
    - target: {fileID: 400000, guid: 550cdd9b4c76ad645b99cd9eea1bb745, type: 3}
      propertyPath: m_LocalPosition.y
      value: 33.89
      objectReference: {fileID: 0}
    - target: {fileID: 400000, guid: 550cdd9b4c76ad645b99cd9eea1bb745, type: 3}
      propertyPath: m_LocalPosition.z
      value: -12.896187
      objectReference: {fileID: 0}
    - target: {fileID: 400000, guid: 550cdd9b4c76ad645b99cd9eea1bb745, type: 3}
      propertyPath: m_LocalRotation.x
      value: 0
      objectReference: {fileID: 0}
    - target: {fileID: 400000, guid: 550cdd9b4c76ad645b99cd9eea1bb745, type: 3}
      propertyPath: m_LocalRotation.y
      value: -0
      objectReference: {fileID: 0}
    - target: {fileID: 400000, guid: 550cdd9b4c76ad645b99cd9eea1bb745, type: 3}
      propertyPath: m_LocalRotation.z
      value: -0.7071068
      objectReference: {fileID: 0}
    - target: {fileID: 400000, guid: 550cdd9b4c76ad645b99cd9eea1bb745, type: 3}
      propertyPath: m_LocalRotation.w
      value: 0.7071068
      objectReference: {fileID: 0}
    - target: {fileID: 400000, guid: 550cdd9b4c76ad645b99cd9eea1bb745, type: 3}
      propertyPath: m_RootOrder
      value: 1
      objectReference: {fileID: 0}
    - target: {fileID: 2300000, guid: 550cdd9b4c76ad645b99cd9eea1bb745, type: 3}
      propertyPath: m_Materials.Array.data[0]
      value: 
      objectReference: {fileID: 2100000, guid: 19f8a934c4d1c2b47b1d094b83f39fb0, type: 2}
    m_RemovedComponents: []
  m_SourcePrefab: {fileID: 100100000, guid: 550cdd9b4c76ad645b99cd9eea1bb745, type: 3}
--- !u!1001 &712508372
PrefabInstance:
  m_ObjectHideFlags: 0
  serializedVersion: 2
  m_Modification:
    m_TransformParent: {fileID: 0}
    m_Modifications:
    - target: {fileID: 4906828391645816, guid: 38efdaadbfe1d624bbee439cb02e7661, type: 3}
      propertyPath: m_LocalPosition.x
      value: -1.673
      objectReference: {fileID: 0}
    - target: {fileID: 4906828391645816, guid: 38efdaadbfe1d624bbee439cb02e7661, type: 3}
      propertyPath: m_LocalPosition.y
      value: 0
      objectReference: {fileID: 0}
    - target: {fileID: 4906828391645816, guid: 38efdaadbfe1d624bbee439cb02e7661, type: 3}
      propertyPath: m_LocalPosition.z
      value: -0.171
      objectReference: {fileID: 0}
    - target: {fileID: 4906828391645816, guid: 38efdaadbfe1d624bbee439cb02e7661, type: 3}
      propertyPath: m_LocalRotation.x
      value: -0
      objectReference: {fileID: 0}
    - target: {fileID: 4906828391645816, guid: 38efdaadbfe1d624bbee439cb02e7661, type: 3}
      propertyPath: m_LocalRotation.y
      value: 0.25155702
      objectReference: {fileID: 0}
    - target: {fileID: 4906828391645816, guid: 38efdaadbfe1d624bbee439cb02e7661, type: 3}
      propertyPath: m_LocalRotation.z
      value: -0
      objectReference: {fileID: 0}
    - target: {fileID: 4906828391645816, guid: 38efdaadbfe1d624bbee439cb02e7661, type: 3}
      propertyPath: m_LocalRotation.w
      value: 0.9678425
      objectReference: {fileID: 0}
    - target: {fileID: 4906828391645816, guid: 38efdaadbfe1d624bbee439cb02e7661, type: 3}
      propertyPath: m_RootOrder
      value: 6
      objectReference: {fileID: 0}
    - target: {fileID: 4906828391645816, guid: 38efdaadbfe1d624bbee439cb02e7661, type: 3}
      propertyPath: m_LocalEulerAnglesHint.y
      value: 29.139002
      objectReference: {fileID: 0}
    m_RemovedComponents: []
  m_SourcePrefab: {fileID: 100100000, guid: 38efdaadbfe1d624bbee439cb02e7661, type: 3}
--- !u!1001 &1630403662
PrefabInstance:
  m_ObjectHideFlags: 0
  serializedVersion: 2
  m_Modification:
    m_TransformParent: {fileID: 0}
    m_Modifications:
    - target: {fileID: 4882590064214274, guid: 3aec22b5d3f3c2947bb81040b56e5f96, type: 3}
      propertyPath: m_LocalPosition.x
      value: -0.66
      objectReference: {fileID: 0}
    - target: {fileID: 4882590064214274, guid: 3aec22b5d3f3c2947bb81040b56e5f96, type: 3}
      propertyPath: m_LocalPosition.y
      value: 0
      objectReference: {fileID: 0}
    - target: {fileID: 4882590064214274, guid: 3aec22b5d3f3c2947bb81040b56e5f96, type: 3}
      propertyPath: m_LocalPosition.z
      value: -1.05
      objectReference: {fileID: 0}
    - target: {fileID: 4882590064214274, guid: 3aec22b5d3f3c2947bb81040b56e5f96, type: 3}
      propertyPath: m_LocalRotation.x
      value: -0
      objectReference: {fileID: 0}
    - target: {fileID: 4882590064214274, guid: 3aec22b5d3f3c2947bb81040b56e5f96, type: 3}
      propertyPath: m_LocalRotation.y
      value: -0.11326831
      objectReference: {fileID: 0}
    - target: {fileID: 4882590064214274, guid: 3aec22b5d3f3c2947bb81040b56e5f96, type: 3}
      propertyPath: m_LocalRotation.z
      value: -0
      objectReference: {fileID: 0}
    - target: {fileID: 4882590064214274, guid: 3aec22b5d3f3c2947bb81040b56e5f96, type: 3}
      propertyPath: m_LocalRotation.w
      value: 0.9935644
      objectReference: {fileID: 0}
    - target: {fileID: 4882590064214274, guid: 3aec22b5d3f3c2947bb81040b56e5f96, type: 3}
      propertyPath: m_RootOrder
      value: 3
      objectReference: {fileID: 0}
    - target: {fileID: 4882590064214274, guid: 3aec22b5d3f3c2947bb81040b56e5f96, type: 3}
      propertyPath: m_LocalEulerAnglesHint.y
      value: -13.008
      objectReference: {fileID: 0}
    m_RemovedComponents: []
  m_SourcePrefab: {fileID: 100100000, guid: 3aec22b5d3f3c2947bb81040b56e5f96, type: 3}
--- !u!1001 &1888468988
PrefabInstance:
  m_ObjectHideFlags: 0
  serializedVersion: 2
  m_Modification:
    m_TransformParent: {fileID: 0}
    m_Modifications:
    - target: {fileID: 4885079432260988, guid: a817c29ea6847604bb2c6c51d9a74bf1, type: 3}
      propertyPath: m_LocalPosition.x
      value: 0.49
      objectReference: {fileID: 0}
    - target: {fileID: 4885079432260988, guid: a817c29ea6847604bb2c6c51d9a74bf1, type: 3}
      propertyPath: m_LocalPosition.y
      value: 0
      objectReference: {fileID: 0}
    - target: {fileID: 4885079432260988, guid: a817c29ea6847604bb2c6c51d9a74bf1, type: 3}
      propertyPath: m_LocalPosition.z
      value: 0.05
      objectReference: {fileID: 0}
    - target: {fileID: 4885079432260988, guid: a817c29ea6847604bb2c6c51d9a74bf1, type: 3}
      propertyPath: m_LocalRotation.x
      value: -0
      objectReference: {fileID: 0}
    - target: {fileID: 4885079432260988, guid: a817c29ea6847604bb2c6c51d9a74bf1, type: 3}
      propertyPath: m_LocalRotation.y
      value: 0.10668084
      objectReference: {fileID: 0}
    - target: {fileID: 4885079432260988, guid: a817c29ea6847604bb2c6c51d9a74bf1, type: 3}
      propertyPath: m_LocalRotation.z
      value: -0
      objectReference: {fileID: 0}
    - target: {fileID: 4885079432260988, guid: a817c29ea6847604bb2c6c51d9a74bf1, type: 3}
      propertyPath: m_LocalRotation.w
      value: 0.99429333
      objectReference: {fileID: 0}
    - target: {fileID: 4885079432260988, guid: a817c29ea6847604bb2c6c51d9a74bf1, type: 3}
      propertyPath: m_RootOrder
      value: 2
      objectReference: {fileID: 0}
    - target: {fileID: 4885079432260988, guid: a817c29ea6847604bb2c6c51d9a74bf1, type: 3}
      propertyPath: m_LocalEulerAnglesHint.y
      value: 12.248
      objectReference: {fileID: 0}
    m_RemovedComponents: []
  m_SourcePrefab: {fileID: 100100000, guid: a817c29ea6847604bb2c6c51d9a74bf1, type: 3}
--- !u!1 &1952445420
GameObject:
  m_ObjectHideFlags: 0
  m_CorrespondingSourceObject: {fileID: 0}
  m_PrefabInstance: {fileID: 0}
  m_PrefabAsset: {fileID: 0}
  serializedVersion: 6
  m_Component:
  - component: {fileID: 1952445425}
  - component: {fileID: 1952445424}
  - component: {fileID: 1952445423}
  - component: {fileID: 1952445422}
  - component: {fileID: 1952445421}
  m_Layer: 0
  m_Name: Main Camera
  m_TagString: MainCamera
  m_Icon: {fileID: 0}
  m_NavMeshLayer: 0
  m_StaticEditorFlags: 0
  m_IsActive: 1
--- !u!81 &1952445421
AudioListener:
  m_ObjectHideFlags: 0
  m_CorrespondingSourceObject: {fileID: 0}
  m_PrefabInstance: {fileID: 0}
  m_PrefabAsset: {fileID: 0}
  m_GameObject: {fileID: 1952445420}
  m_Enabled: 1
--- !u!124 &1952445422
Behaviour:
  m_ObjectHideFlags: 0
  m_CorrespondingSourceObject: {fileID: 0}
  m_PrefabInstance: {fileID: 0}
  m_PrefabAsset: {fileID: 0}
  m_GameObject: {fileID: 1952445420}
  m_Enabled: 1
--- !u!92 &1952445423
Behaviour:
  m_ObjectHideFlags: 0
  m_CorrespondingSourceObject: {fileID: 0}
  m_PrefabInstance: {fileID: 0}
  m_PrefabAsset: {fileID: 0}
  m_GameObject: {fileID: 1952445420}
  m_Enabled: 1
--- !u!20 &1952445424
Camera:
  m_ObjectHideFlags: 0
  m_CorrespondingSourceObject: {fileID: 0}
  m_PrefabInstance: {fileID: 0}
  m_PrefabAsset: {fileID: 0}
  m_GameObject: {fileID: 1952445420}
  m_Enabled: 1
  serializedVersion: 2
  m_ClearFlags: 1
  m_BackGroundColor: {r: 0.19215687, g: 0.3019608, b: 0.4745098, a: 0}
  m_projectionMatrixMode: 1
  m_SensorSize: {x: 36, y: 24}
  m_LensShift: {x: 0, y: 0}
  m_GateFitMode: 2
  m_FocalLength: 50
  m_NormalizedViewPortRect:
    serializedVersion: 2
    x: 0
    y: 0
    width: 1
    height: 1
  near clip plane: 0.3
  far clip plane: 1000
  field of view: 20
  orthographic: 0
  orthographic size: 5
  m_Depth: -1
  m_CullingMask:
    serializedVersion: 2
    m_Bits: 4294967295
  m_RenderingPath: -1
  m_TargetTexture: {fileID: 0}
  m_TargetDisplay: 0
  m_TargetEye: 3
  m_HDR: 1
  m_AllowMSAA: 1
  m_AllowDynamicResolution: 0
  m_ForceIntoRT: 0
  m_OcclusionCulling: 1
  m_StereoConvergence: 10
  m_StereoSeparation: 0.022
--- !u!4 &1952445425
Transform:
  m_ObjectHideFlags: 0
  m_CorrespondingSourceObject: {fileID: 0}
  m_PrefabInstance: {fileID: 0}
  m_PrefabAsset: {fileID: 0}
  m_GameObject: {fileID: 1952445420}
  m_LocalRotation: {x: -0, y: 0.9967612, z: -0.08041934, w: 0}
  m_LocalPosition: {x: 0, y: 1.86, z: 7.19}
  m_LocalScale: {x: 1, y: 1, z: 1}
  m_Children: []
  m_Father: {fileID: 0}
  m_RootOrder: 0
  m_LocalEulerAnglesHint: {x: 9.225, y: 180.00002, z: 0}
--- !u!1 &1979767651
GameObject:
  m_ObjectHideFlags: 0
  m_CorrespondingSourceObject: {fileID: 0}
  m_PrefabInstance: {fileID: 0}
  m_PrefabAsset: {fileID: 0}
  serializedVersion: 6
  m_Component:
  - component: {fileID: 1979767653}
  - component: {fileID: 1979767652}
  m_Layer: 0
  m_Name: Directional Light
  m_TagString: Untagged
  m_Icon: {fileID: 0}
  m_NavMeshLayer: 0
  m_StaticEditorFlags: 0
  m_IsActive: 1
--- !u!108 &1979767652
Light:
  m_ObjectHideFlags: 0
  m_CorrespondingSourceObject: {fileID: 0}
  m_PrefabInstance: {fileID: 0}
  m_PrefabAsset: {fileID: 0}
  m_GameObject: {fileID: 1979767651}
  m_Enabled: 1
  serializedVersion: 8
  m_Type: 1
  m_Color: {r: 1, g: 0.95686275, b: 0.8392157, a: 1}
  m_Intensity: 1.2
  m_Range: 10
  m_SpotAngle: 30
  m_CookieSize: 10
  m_Shadows:
    m_Type: 2
    m_Resolution: 3
    m_CustomResolution: -1
    m_Strength: 1
    m_Bias: 0.05
    m_NormalBias: 0.4
    m_NearPlane: 0.2
  m_Cookie: {fileID: 0}
  m_DrawHalo: 0
  m_Flare: {fileID: 0}
  m_RenderMode: 0
  m_CullingMask:
    serializedVersion: 2
    m_Bits: 4294967295
  m_Lightmapping: 4
  m_LightShadowCasterMode: 0
  m_AreaSize: {x: 1, y: 1}
  m_BounceIntensity: 1
  m_ColorTemperature: 6570
  m_UseColorTemperature: 0
  m_ShadowRadius: 0
  m_ShadowAngle: 0
--- !u!4 &1979767653
Transform:
  m_ObjectHideFlags: 0
  m_CorrespondingSourceObject: {fileID: 0}
  m_PrefabInstance: {fileID: 0}
  m_PrefabAsset: {fileID: 0}
  m_GameObject: {fileID: 1979767651}
  m_LocalRotation: {x: -0.18346773, y: -0.8164514, z: 0.38071722, w: -0.39344776}
  m_LocalPosition: {x: 0, y: 3, z: 0}
  m_LocalScale: {x: 1, y: 1, z: 1}
  m_Children: []
  m_Father: {fileID: 0}
  m_RootOrder: 4
  m_LocalEulerAnglesHint: {x: 50.000004, y: -231.459, z: 0}
